i:293 fooCount:8
LngSc:11513039 N:20 retN:20
Score = 1.1513039E7
i:1 fooCount:659
LngSc:19730605 N:1000 retN:1000
Score = 1.9730605E7
i:4 fooCount:323
LngSc:30287770 N:555 retN:555
Score = 3.028777E7
i:3 fooCount:318
LngSc:15849852 N:518 retN:518
Score = 1.5849852E7
i:1 fooCount:749
LngSc:8294281 N:970 retN:970
Score = 8294281.0
i:3 fooCount:181
LngSc:17309033 N:728 retN:728
Score = 1.7309033E7
i:73 fooCount:16
LngSc:51050964 N:152 retN:152
Score = 5.1050964E7
i:17 fooCount:16
LngSc:29498998 N:294 retN:294
Score = 2.9498998E7
i:2 fooCount:91
LngSc:23750097 N:552 retN:552
Score = 2.3750097E7
i:7 fooCount:216
LngSc:43685058 N:474 retN:474
Score = 4.3685058E7
