LngSc:14740683 N:20 retN:20
Score = 1.4740683E7
LngSc:20368580 N:1000 retN:1000
Score = 2.036858E7
LngSc:30810834 N:555 retN:555
Score = 3.0810834E7
LngSc:16739767 N:518 retN:518
Score = 1.6739767E7
LngSc:8474106 N:970 retN:970
Score = 8474106.0
LngSc:19135404 N:728 retN:728
Score = 1.9135404E7
LngSc:56240516 N:152 retN:152
Score = 5.6240516E7
LngSc:31511844 N:294 retN:294
Score = 3.1511844E7
LngSc:24114291 N:552 retN:552
Score = 2.4114291E7
LngSc:46184405 N:474 retN:474
Score = 4.6184405E7
